%YAML 1.1
%TAG !u! tag:unity3d.com,2011:
--- !u!114 &11400000
MonoBehaviour:
  m_ObjectHideFlags: 0
  m_PrefabParentObject: {fileID: 0}
  m_PrefabInternal: {fileID: 0}
  m_GameObject: {fileID: 0}
  m_Enabled: 1
  m_EditorHideFlags: 0
  m_Script: {fileID: 11500000, guid: 99eba20cf86e2364c83236d1296015df, type: 3}
  m_Name: EnemyShipConfig
  m_EditorClassIdentifier: 
  id: 196fc8db-969c-4d61-ac7c-5e2c7fb56221
  speed: -5
  scoreValue: 20
  weaponShot: {fileID: 100000, guid: 11e27c26ac87b40f0a62ec40d7261989, type: 2}
  weaponFireRate: 1.5
  weaponDelay: 0.5
  maneuverTilt: 10
  maneuverDodge: 5
  maneuverSmoothing: 7.5
  maneuverBoundary:
    xMin: -6
    xMax: 6
    zMin: -20
    zMax: 20
  maneuverTime: {x: 1, y: 2}
  maneuverWait: {x: 1, y: 1}
  maneuverStartWait: {x: 0.5, y: 1}
